{
	"info": {
		"_postman_id": "29889c14-a77d-490d-a3e7-9c4b5e5b35f7",
		"name": "dbapp_user",
		"schema": "https://schema.getpostman.com/json/collection/v2.1.0/collection.json"
	},
	"item": [
		{
			"name": "http://localhost:5000/api/v1/user",
			"request": {
				"method": "POST",
				"header": [
					{
						"key": "Content-Type",
						"name": "Content-Type",
						"value": "application/x-www-form-urlencoded",
						"type": "text",
						"disabled": true
					},
					{
						"key": "Content-Type",
						"value": "application/json",
						"type": "text"
					}
				],
				"body": {
					"mode": "raw",
					"raw": "{\n\"UserName\":\"Rafal2\",\n\"Email\":\"raf080200@gmail.com\",\n\"Gender\":0,\n\"BirthDate\":\"2000-02-08T00:00:00\"\n}"
				},
				"url": {
					"raw": "http://localhost:5000/api/v1/user",
					"protocol": "http",
					"host": [
						"localhost"
					],
					"port": "5000",
					"path": [
						"api",
						"v1",
						"user"
					]
				}
			},
			"response": []
		},
		{
			"name": "http://localhost:5000/api/v1/user/edit/19",
			"request": {
				"method": "PATCH",
				"header": [
					{
						"key": "Content-Type",
						"name": "Content-Type",
						"value": "application/x-www-form-urlencoded",
						"type": "text",
						"disabled": true
					},
					{
						"key": "Content-Type",
						"value": "application/json",
						"type": "text"
					}
				],
				"body": {
					"mode": "raw",
					"raw": "{\n\"UserName\":\"Cos\",\n\"Email\":\"raf080200@gmail.com\",\n\"Gender\":0,\n\"BirthDate\":\"2000-08-02T00:00:00\"\n}"
				},
				"url": {
					"raw": "http://localhost:5000/api/v1/user/edit/18",
					"protocol": "http",
					"host": [
						"localhost"
					],
					"port": "5000",
					"path": [
						"api",
						"v1",
						"user",
						"edit",
						"24"
					]
				}
			},
			"response": []
		},
		{
			"name": "https://localhost:5001/api/v1/user/name/Rafal",
			"request": {
				"method": "GET",
				"header": [],
				"url": {
					"raw": "https://localhost:5001/api/v1/user/1",
					"protocol": "https",
					"host": [
						"localhost"
					],
					"port": "5001",
					"path": [
						"api",
						"v1",
						"user",
						"1"
					]
				}
			},
			"response": []
		},
		{
			"name": "https://localhost:5001/api/v1/user/name/Rafal",
			"request": {
				"method": "GET",
				"header": [],
				"url": {
					"raw": "https://localhost:5001/api/v1/user/name/Rafal",
					"protocol": "https",
					"host": [
						"localhost"
					],
					"port": "5001",
					"path": [
						"api",
						"v1",
						"user",
						"name",
						"Rafal"
					]
				}
			},
			"response": []
		},
		{
			"name": "https://localhost:5001/api/v1/user/delete/15",
			"request": {
				"method": "DELETE",
				"header": [],
				"url": {
					"raw": "https://localhost:5001/api/v1/user/delete/15",
					"protocol": "https",
					"host": [
						"localhost"
					],
					"port": "5001",
					"path": [
						"api",
						"v1",
						"user",
						"delete",
						"15"
					]
				}
			},
			"response": []
		}
	],
	"protocolProfileBehavior": {}
}
